<svg viewBox="0 0 316 316" xmlns="http://www.w3.org/2000/svg">
  <path d="M0 30.363c12.197-6.789 24.994-13.148 36.504-20.624C58.32-4.955 77.302-1.088 101.094 8.622c28.859 11.945 42.946 26.983 37.019 58.691a200.726 200.726 0 0 0 0 32.139 317.51 317.51 0 0 0 32.381-15.21 15.21 15.21 0 0 0 5.154-13.148c-7.473-36.091 9.706-53.45 42.173-65.652a74.175 74.175 0 0 1 57.031.946c33.24 11.858 42.946 30.591 40.885 65.308-3.264 65.394-1.117 131.132-.602 196.698a20.8 20.8 0 0 1-3.059 14.064 20.787 20.787 0 0 1-11.456 8.708c-17.178 7.476-34.357 16.499-51.535 24.748h-8.589c-15.461-7.734-30.491-16.499-46.468-23.116a24.654 24.654 0 0 1-14.418-10.376 24.669 24.669 0 0 1-3.704-17.38c1.288-17.186 0-34.372 0-52.246-37.879 13.147-37.879 13.147-37.879 48.809v11.429a15.733 15.733 0 0 1-2.399 10.664 15.718 15.718 0 0 1-8.766 6.522L71.892 316h-8.59c-12.798-6.445-25.767-12.718-38.308-19.506C16.405 292.197 8.59 286.697 0 281.799V30.363Zm294.092 17.186c-39.338 11.944-39.338 11.944-39.338 49.067v5.93c2.147 12.889-3.951 19.764-15.461 25.006-44.405 20.107-88.554 40.903-132.788 61.527-4.895 2.32-9.706 5.07-15.632 8.077a198.33 198.33 0 0 1 19.583 9.797 29.62 29.62 0 0 0 32.897.945c28.344-14.265 57.461-26.897 85.891-40.56 20.958-9.882 26.283-6.789 26.283 16.069v108.79c12.454-5.929 23.191-10.312 33.412-15.897a11.964 11.964 0 0 0 4.638-9.281V47.549h.515ZM19.927 261.605c34.356-8.593 39.682-12.116 37.362-42.966-1.717-22.084 7.13-31.794 25.768-39.958 46.381-19.936 91.904-42.106 139.316-64.105-19.583-11.945-36.762-24.405-58.921-7.648a94.441 94.441 0 0 1-17.179 7.906c-22.675 10.741-45.264 21.741-68.026 32.138-14.601 6.703-20.099 2.492-20.013-13.147 0-20.366-.515-40.818-.601-61.27v-53.45a140.647 140.647 0 0 1-20.27 8.594C22.074 31.738 19.24 41.448 19.497 56.142c.773 63.16 0 126.406 0 189.652l.43 15.811Zm213.869 29.389V184.696a186.707 186.707 0 0 0-26.712 12.976 22.425 22.425 0 0 0-9.534 14.179 491.33 491.33 0 0 0 0 52.762 17.186 17.186 0 0 0 5.927 12.546 324.215 324.215 0 0 0 29.804 14.007l.515-.172ZM80.136 20.481v98.391a53.04 53.04 0 0 0 .688 5.328c34.356-8.593 36.761-11.257 36.761-43.567V70.75c0-36.606 0-36.606-34.356-50.441h-3.436l.343.172Zm22.934 258.654c-29.633-19.334-47.498-18.991-68.198.516 21.988 19.334 45.093 18.819 68.026 0l.172-.516Zm107.794-247.14c22.417 18.562 45.865 19.163 68.712-.43-23.19-19.42-46.638-18.904-68.712.602v-.172ZM116.383 262.55c3.951-34.974-.687-41.247-35.645-48.809-3.264 34.373-1.03 37.638 35.473 48.981l.172-.172Zm81.511-214.83c-1.976 37.381-1.976 37.381 35.645 50.013 2.147-40.216 7.129-31.193-35.903-49.84l.258-.172Z" fill="#FE0909"/>
</svg>
